{
  "name": "",
  "css_prefix_text": "icon-",
  "css_use_suffix": false,
  "hinting": true,
  "units_per_em": 1000,
  "ascent": 850,
  "glyphs": [
    {
      "uid": "4ae8cbc2c1329cb5dbe6e6995d8c68be",
      "css": "pause-circle-o",
      "code": 59926,
      "src": "fontawesome"
    },
    {
      "uid": "e835d9d0f2ee39ae01b01cc6a6fa24ab",
      "css": "play-circled2",
      "code": 59925,
      "src": "fontawesome"
    },
    {
      "uid": "18ef25350258541e8e54148ed79845c0",
      "css": "minus-squared-alt",
      "code": 59648,
      "src": "fontawesome"
    },
    {
      "uid": "559647a6f430b3aeadbecd67194451dd",
      "css": "menu",
      "code": 9776,
      "src": "fontawesome"
    },
    {
      "uid": "861ab06e455e2de3232ebef67d60d708",
      "css": "minus",
      "code": 59400,
      "src": "fontawesome"
    },
    {
      "uid": "f5999a012fc3752386635ec02a858447",
      "css": "download-cloud",
      "code": 59399,
      "src": "fontawesome"
    },
    {
      "uid": "795efd07cd5205b589c883916a76cff0",
      "css": "hdd",
      "code": 61600,
      "src": "fontawesome"
    },
    {
      "uid": "18f9a07b82830c72a66ca8949e33a103",
      "css": "dessin",
      "code": 59401,
      "src": "custom_icons",
      "selected": true,
      "svg": {
        "path": "M210 0C94.1 0 0 94.1 0 210V790C0 905.9 94.1 1000 210 1000H790C905.9 1000 1000 905.9 1000 790V210C1000 94.1 905.9 0 790 0ZM210 59.9H790C873.7 59.9 940.1 126.3 940.1 210V790C940.1 873.7 873.7 940.1 790 940.1H210C126.3 940.1 59.9 873.7 59.9 790V210C59.9 126.3 126.3 59.9 210 59.9Z",
        "width": 1000
      },
      "search": [
        "dessin"
      ]
    },
    {
      "uid": "aa9e2e5dde7def6bb0378f1de9944a09",
      "css": "dessin---copie-(7)",
      "code": 59408,
      "src": "custom_icons",
      "selected": true,
      "svg": {
        "path": "M180 0C80.3 0 0 80.3 0 180V820C0 919.7 80.3 1000 180 1000H820C919.7 1000 1000 919.7 1000 820V180C1000 80.3 919.7 0 820 0ZM682.7 346.1A40 40 0 0 1 710.2 413.7L499 641A40 40 0 0 1 440.4 641L290.7 479.9A40 40 0 1 1 349.3 425.5L469.7 555 651.6 359.3A40 40 0 0 1 682.7 346.1Z",
        "width": 1000
      },
      "search": [
        "dessin---copie-(7)"
      ]
    },
    {
      "uid": "3fa2cb3f08ca91abc9b0c940bbbdbf7a",
      "css": "dessin---copie-(9)",
      "code": 59395,
      "src": "custom_icons",
      "selected": true,
      "svg": {
        "path": "M544.1 0L544.1 455.9 1000 455.9V544.1L544.1 544.1 544.1 1000H455.9L455.9 544.1 0 544.1V455.9L455.9 455.9 455.9 0Z",
        "width": 1000
      },
      "search": [
        "dessin---copie-(9)"
      ]
    },
    {
      "uid": "40b294d2a28579940de3302c8a0cc067",
      "css": "corbeille",
      "code": 59396,
      "src": "custom_icons",
      "selected": true,
      "svg": {
        "path": "M702.7 1000L330.6 1000C225.6 1000 140.4 915.6 140.1 811.2L140.1 225.9C140.1 199.3 161.8 177.8 188.6 177.8 215.3 177.8 237 199.3 237 225.9L237 811.2C237.3 862.4 279.1 903.7 330.6 903.6L702.7 903.6C754.2 903.7 796.1 862.4 796.3 811.2L796.3 225.9C796.3 199.3 818 177.8 844.8 177.8 871.5 177.8 893.2 199.3 893.2 225.9L893.2 811.2C892.9 915.5 807.7 999.9 702.7 1000L702.7 1000ZM983 269.7L50.2 269.7C32.5 270.3 15.8 261.3 6.8 246.1-2.3 231-2.3 212.1 6.8 196.9 15.8 181.8 32.5 172.8 50.2 173.4L983.1 173.4C1000.8 172.8 1017.5 181.8 1026.5 196.9 1035.6 212.1 1035.6 231 1026.5 246.1 1017.5 261.3 1000.8 270.3 983.1 269.7L983 269.7ZM405.8 804.1C392.9 804.1 380.6 799.1 371.5 790 362.4 781 357.3 768.7 357.4 755.9L357.4 421.6C357.4 395 379 373.4 405.8 373.4 432.5 373.4 454.2 395 454.2 421.6L454.2 755.9C454.2 768.7 449.1 781 440.1 790 431 799.1 418.6 804.1 405.8 804.1L405.8 804.1ZM627.4 804.1C614.6 804.1 602.2 799.1 593.1 790 584.1 781 579 768.7 579 755.9L579 421.6C579 404.4 588.2 388.5 603.2 379.9 618.2 371.3 636.6 371.3 651.6 379.9 666.6 388.5 675.8 404.4 675.8 421.6L675.8 755.9C675.9 768.7 670.8 781 661.7 790 652.6 799.1 640.3 804.1 627.4 804.1L627.4 804.1ZM790.2 226.4C770.6 226.4 753 214.7 745.5 196.7L715.7 125.9C708.2 107.8 690.4 96.1 670.8 96.2L362.6 96.2C342.9 96.2 325.2 107.9 317.6 125.9L287.7 196.7C277.2 220.9 249.1 232.2 224.7 222.1 200.2 211.9 188.5 184.2 198.3 159.8L228.1 88.8C250.7 35 303.7-0.1 362.4 0L670.6 0C729.4-0.2 782.4 34.9 805 88.8L834.8 159.7C839.8 171.5 839.8 184.8 834.9 196.6 830 208.4 820.6 217.8 808.7 222.7 802.9 225.2 796.6 226.4 790.2 226.4L790.2 226.4Z",
        "width": 1033
      },
      "search": [
        "corbeille"
      ]
    },
    {
      "uid": "32640c996b21dcc1711354a3655e3336",
      "css": "crayon",
      "code": 59397,
      "src": "custom_icons",
      "selected": true,
      "svg": {
        "path": "M936.3 64.2C895.2 22.9 840.7 0 782.3 0 724.3 0 669.5 22.9 628.3 64.2L52.9 642.3C46.5 648.7 42.7 656.9 41.2 665.7L0.4 953.1C-1.4 965.7 2.7 978.6 11.8 987.7 19.4 995.6 30.1 1000 40.9 1000 42.7 1000 44.1 1000 45.9 999.7L336.7 963.4C345.7 962.2 354.2 958.1 360.6 951.7L936.3 373.3C1021.2 287.7 1021.2 149.4 936.3 64.2ZM312.8 883.4L88.8 911.2 120.3 690.6 612.6 196 804.8 389.1 312.8 883.4ZM878.9 315.6L862.8 331.7 670.6 138.6 686.7 122.5C712.1 96.1 746.2 82 782.6 82 818.8 82 853.2 96.1 878.9 122.2 904.6 148.3 918.8 182.2 918.8 218.9 918.8 255.2 904.8 289.8 878.9 315.6Z",
        "width": 1000
      },
      "search": [
        "crayon"
      ]
    },
    {
      "uid": "c8c6f7754f6237d03f40376f5c46117e",
      "css": "chevron-d-1",
      "code": 59403,
      "src": "custom_icons",
      "selected": true,
      "svg": {
        "path": "M0 278.2C0 299.5 8.3 319.6 23.4 334.7L483.8 795.1C488.2 799.5 494.1 801.8 499.9 801.8 505.7 801.8 511.6 799.5 516 795.1L976.6 334.7C1007.8 303.5 1007.8 252.8 976.6 221.6 945.4 190.4 894.7 190.4 863.5 221.6L500 585.1 136.5 221.6C121.4 206.5 101.3 198.2 80 198.2 58.6 198.2 38.5 206.5 23.4 221.6 8.3 236.7 0 256.8 0 278.2Z",
        "width": 1000
      },
      "search": [
        "chevron-d"
      ]
    },
    {
      "uid": "20abf892877d4ffffd0d2f814820a11c",
      "css": "chevron-d-2",
      "code": 59398,
      "src": "custom_icons",
      "selected": true,
      "svg": {
        "path": "M278.2 1000C299.5 1000 319.6 991.7 334.7 976.6L795.1 516.2C799.5 511.8 801.8 505.9 801.8 500.1 801.8 494.3 799.5 488.4 795.1 484L334.7 23.4C303.5-7.8 252.8-7.8 221.6 23.4 190.4 54.6 190.4 105.3 221.6 136.5L585.1 500 221.6 863.5C206.5 878.6 198.2 898.7 198.2 920 198.2 941.4 206.5 961.5 221.6 976.6 236.7 991.7 256.8 1000 278.2 1000Z",
        "width": 1000
      },
      "search": [
        "chevron-d"
      ]
    },
    {
      "uid": "0ac376938bd4efbaf58c30aaa0d05d41",
      "css": "chevron-d-3",
      "code": 59405,
      "src": "custom_icons",
      "selected": true,
      "svg": {
        "path": "M1000 721.8C1000 700.5 991.7 680.4 976.6 665.3L516.2 204.9C511.8 200.5 505.9 198.2 500.1 198.2 494.3 198.2 488.4 200.5 484 204.9L23.4 665.3C-7.8 696.5-7.8 747.2 23.4 778.4 54.6 809.6 105.3 809.6 136.5 778.4L500 414.9 863.5 778.4C878.6 793.5 898.7 801.8 920 801.8 941.4 801.8 961.5 793.5 976.6 778.4 991.7 763.3 1000 743.2 1000 721.8Z",
        "width": 1000
      },
      "search": [
        "chevron-d"
      ]
    },
    {
      "uid": "e05e5365230963d1851788909c01fccf",
      "css": "chevron-d-4",
      "code": 59402,
      "src": "custom_icons",
      "selected": true,
      "svg": {
        "path": "M721.8 0C700.5 0 680.4 8.3 665.3 23.4L204.9 483.8C200.5 488.2 198.2 494.1 198.2 499.9 198.2 505.7 200.5 511.6 204.9 516L665.3 976.6C696.5 1007.8 747.2 1007.8 778.4 976.6 809.6 945.4 809.6 894.7 778.4 863.5L414.9 500 778.4 136.5C793.5 121.4 801.8 101.3 801.8 80 801.8 58.6 793.5 38.5 778.4 23.4 763.3 8.3 743.2 0 721.8 0Z",
        "width": 1000
      },
      "search": [
        "chevron-d"
      ]
    },
    {
      "uid": "7a52cddc3b4b16dabb8823d4d8d99010",
      "css": "check",
      "code": 59406,
      "src": "custom_icons",
      "selected": true,
      "svg": {
        "path": "M706.9 352.7A29.4 29.4 0 0 0 684.1 362.3L464.8 598.3 315.7 437.8A29.4 29.4 0 1 0 272.6 477.9L443.2 661.5A29.4 29.4 0 0 0 486.4 661.5L727.2 402.4A29.4 29.4 0 0 0 706.9 352.7ZM500 0C223.5 0 0 223.5 0 500 0 776.5 223.5 1000 500 1000 776.5 1000 1000 776.5 1000 500 1000 223.5 776.5 0 500 0ZM500 58.8C744.9 58.8 941.2 255.1 941.2 500 941.2 744.9 744.9 941.2 500 941.2 255.1 941.2 58.8 744.9 58.8 500 58.8 255.1 255.1 58.8 500 58.8Z",
        "width": 1000
      },
      "search": [
        "check"
      ]
    },
    {
      "uid": "7334e8b4235fffdecec761c5da8eaaac",
      "css": "croix",
      "code": 59407,
      "src": "custom_icons",
      "selected": true,
      "svg": {
        "path": "M105.4 0L0 105.4 394.6 500 0 894.6 105.4 1000 500 605.4 894.6 1000 1000 894.6 605.4 500 1000 105.4 894.6 0 500 394.6Z",
        "width": 1000
      },
      "search": [
        "croix"
      ]
    },
    {
      "uid": "445d4da3c26b551186b9b4a2c271a1a6",
      "css": "puzzle",
      "code": 59393,
      "src": "custom_icons",
      "selected": true,
      "svg": {
        "path": "M312.3 130.4C294.7 125.5 276.3 126.4 256.3 134.9 234.7 144.1 219.3 157.9 209.8 174.6L209.6 175C200.6 190.1 199.4 207.8 208.3 228.7 212.6 238.8 219.6 249.3 227.5 257.5 236 266.4 244.1 272.8 250.2 276.5 259.8 281.6 268.2 288.1 274.3 292.9 274.6 293.1 274.8 293.3 275.1 293.4 276 294.2 276.9 294.9 277.8 295.8 283.6 301.4 290.6 308.8 294.2 317.2L295 319.2C295 319.4 295.1 319.5 295.2 319.7 295.9 321.5 297.1 324.1 297.9 326.5 298.9 329.4 300.3 334.2 300.3 340.1 300.3 346.4 298.8 351.5 297.4 354.9 296.4 357.5 295.1 360.1 294.3 361.6 294.3 361.7 294.2 361.8 294.2 362 292.4 365.5 290 368.6 287 371.3 282.8 375 277.7 377.9 274.8 379.5 271.2 381.4 267.1 383.4 263.2 385.2 255.4 388.8 246.7 392.5 240.5 395.2L114.2 448.8 290.9 864.9 291.6 864.8C291.8 864.7 292.1 864.7 292.4 864.7L293.2 864.4C293.5 864.4 293.8 864.3 294.1 864.2 295.6 863.8 297.7 863.1 300.1 862.5 303.6 861.1 306.6 860.2 309.1 859.6 309.5 859.5 310 859.4 310.4 859.3 311.2 859 312 858.8 312.8 858.5 358.3 846.3 393.1 835.8 418.2 825.2 439 816.3 451 806.4 457.4 798.5 462.9 781.3 462.1 770.7 459.1 763.6 458 761 454.9 756.2 447.1 749.9 439.3 743.8 432.3 738.8 424.6 734.3 424.1 734 423.6 733.7 423.1 733.4 415.1 728 406.6 721.4 396.8 711.4 396.4 711 396 710.6 395.6 710.1 387.2 700.5 379 688.6 373.2 675.1 362.7 650.1 361.9 624.4 375.4 600.5 388.3 576.8 407.7 560.9 432.6 550.3 456.6 540.1 481 537.6 505.2 545 530.5 552.7 546.6 570.5 556.4 593.8 562.1 607.1 564.3 620.4 563.6 634.3 563.4 645.8 562.4 658.8 557.6 671 555.5 676.2 554.1 684.4 552.9 697.9 552.8 698.2 552.8 698.5 552.8 698.8 551.8 707.3 553.1 715.9 557.2 725.5 561 734.7 565.7 739.3 569.4 742 573.2 744.7 577.4 746.2 581.8 747.1 593.8 748.8 607.3 747.2 622.7 740.7 635 735.5 648 728.9 662.1 721.8 667.2 718.9 671.3 716.5 675.6 713.9 677.8 712.7 679.9 711.4 682.3 710 687.1 706.7 692.7 703.1 699 699.3L699.1 699.3 737 675.9 699.2 586.9C691.6 569 687.1 548.7 695.7 529.9 704.1 511.3 721.2 503.8 728.9 500.5 739.1 496.2 751.9 492.3 767.6 494 776.9 494.7 789 495.9 800.4 500.4 807.2 502.6 816.1 504 828.5 504.9 838.8 505.2 849 503.3 858.3 499.3 877.9 491 888.6 478.5 892.9 462.7 897.6 445.1 896.3 425.2 887.4 404.3 877.9 382 863.9 366.1 847.2 356.3L846.8 356C831.7 346.8 814.5 345.5 794.3 354 784.6 358.1 774.4 365 766.4 372.9 757.8 381.3 751.6 389.3 748 395.5 743.1 405.1 736.7 413.5 732.1 419.7L731.5 420.4C730.8 421.4 730 422.3 729.2 423.2 723.7 429 716.3 436.2 707.7 439.8 688.1 448.2 667.3 441.5 654.2 436 640.2 430.2 631.8 418.1 627.6 411.2 622.6 403.1 618.4 393.7 614.9 385.5L561.6 260 409.3 324.7C384.6 335.2 361.2 318.9 352.1 297.3 347.7 287.1 343.8 274.3 345.3 258.7 345.8 249.4 346.9 237.2 351.2 225.8 353.3 218.8 354.7 209.8 355.4 197.3 355.6 186.6 353.5 176.1 349.4 166.4 340.8 146.1 328 135 312.3 130.4ZM231.7 77.1C264.3 63.3 297.4 61 329.4 70.1L329.6 70.1C366.3 80.7 392.3 106.9 407.2 141.9 414.8 159.8 418.6 179.4 418.1 199.3 418.1 199.6 418.1 199.9 418.1 200.3 417.2 215.7 415.4 231.1 410.7 245.6 410.5 246.3 410.3 246.9 410 247.6 409.5 249 408.9 251.7 408.4 256.9L566 190C581.9 183.2 600.4 190.6 607.1 206.6L672.7 361C675.9 368.7 678.7 374.4 681.1 378.3 681.3 378.7 681.6 379.1 681.8 379.4 682.4 379.6 682.9 379.8 683.4 380 687.7 374.2 690.5 370.3 692.4 366.3 692.7 365.9 692.9 365.4 693.2 364.9 700.2 352.6 710.4 339.9 722.6 328 735.7 315.1 752.3 303.7 769.8 296.2 806.1 280.8 844.8 281.4 879.3 302.3 908.6 319.7 931.1 346.6 945.1 379.7 958.9 412.2 962.2 446.4 953.6 478.8L953.5 479C943.5 516 917.8 542.3 882.8 557.1 865 564.7 845.5 568.4 825.7 567.6 825.3 567.6 825 567.6 824.7 567.6 809.3 566.5 794 564.5 779.6 559.6 778.9 559.4 778.3 559.1 777.6 558.9 775.8 558.1 771.8 557.2 762.5 556.6 761.9 556.5 761.4 556.5 760.8 556.4 760.1 556.3 759.5 556.3 758.7 556.5 757.9 556.6 756.9 556.9 755.2 557.6 755.6 558.9 756.2 560.5 757 562.4L805.3 676.2C811.4 690.5 806.1 707.1 792.9 715.2L731.7 752.9C725.6 756.6 720.7 759.8 716.9 762.4 716.2 762.8 715.6 763.3 714.9 763.6 712.7 764.9 710.5 766.2 708.2 767.6 703.4 770.4 698.2 773.5 692.4 776.8 692 777 691.6 777.2 691.1 777.4L690.7 777.7C676.8 784.7 661.8 792.3 647.2 798.5 621.9 809.2 596.5 812.8 571.9 809.1 571.4 809.1 570.9 809 570.4 808.9 556.6 806.2 539.2 799.9 523.8 785.7 522.7 798.6 519.5 811.4 515 823.8 514.2 826.2 513 828.5 511.6 830.7 497.4 851.8 473.8 869.7 442.7 883 413.6 895.3 375.6 906.6 331.1 918.6 329.4 919.3 328 919.6 327.5 919.8 326.7 920 325.9 920.1 325.7 920.2 324.9 920.4 324.7 920.4 324.4 920.5 324 920.6 323.3 920.8 322.1 921.3 320.5 922 318.8 922.5 317.1 922.9 315.4 923.3 314.1 923.7 312.3 924.2 311.8 924.4 311.3 924.5 310.7 924.7L310.5 924.8C308.7 925.3 305 926.4 300.6 926.9L286.7 932.8C271.4 939.3 253.6 932.7 246.3 917.7L237.3 899.3C237.1 898.8 236.8 898.3 236.6 897.8L44.2 444.4C37.4 428.4 44.8 410 60.8 403.2L215.7 337.5C218.3 336.4 221.2 335.2 224.1 333.9 222.8 333.1 221.5 332.3 220.3 331.7 219.8 331.4 219.3 331.2 218.9 330.9 206.7 323.7 194 313.3 182.1 300.9 169.4 287.6 158 270.8 150.5 253.2 135 216.8 135 177.9 155.4 143.3 172.3 113.7 198.8 91.1 231.7 77.1ZM489.7 703.7C489.7 699.8 489.9 695.8 490.4 691.8 491.6 678.6 493.5 662.3 499.2 647.9 499.8 646.4 500.7 642.4 500.8 632.9 500.8 632.5 500.8 632 500.9 631.5 501.2 626.5 500.5 622.6 498.7 618.3 494.3 608 490.6 606.2 487 605.1L486.7 605C479.1 602.7 470.1 602.6 457.1 608.1 443.2 614.1 435.6 621.2 430.5 630.7L430.1 631.3C428 635.1 426.5 639.9 431 650.5 433.6 656.5 437.5 662.6 442.2 668.1 448.1 674 452.9 677.7 457.3 680.7 467.7 686.9 476.9 693.5 486.1 700.8L486.3 700.9C487.4 701.8 488.6 702.8 489.7 703.7ZM687.8 381L687.8 381Z",
        "width": 1000
      },
      "search": [
        "puzzle"
      ]
    },
    {
      "uid": "ee6e821eeeb0d12c4fad294a1d22b752",
      "css": "search",
      "code": 59392,
      "src": "custom_icons",
      "selected": true,
      "svg": {
        "path": "M369.2 41.7C188.6 41.7 42.2 188.1 42.2 368.7 42.2 549.3 188.6 695.8 369.2 695.8 448 695.8 520.3 667.9 576.8 621.5L904.5 949.2C916.7 961.4 936.5 961.4 948.7 949.2 960.9 937 960.9 917.2 948.7 905L621.1 577.4C668 520.8 696.3 448 696.3 368.7 696.3 188.1 549.9 41.7 369.2 41.7ZM104.6 368.7C104.6 222.6 223.1 104.1 369.2 104.1 515.3 104.1 633.8 222.6 633.8 368.7 633.8 514.8 515.3 633.3 369.2 633.3 223.1 633.3 104.6 514.8 104.6 368.7Z",
        "width": 1000
      },
      "search": [
        "search"
      ]
    },
    {
      "uid": "cb6360bdce3ff728395cde3f40561911",
      "css": "img",
      "code": 59394,
      "src": "custom_icons",
      "selected": true,
      "svg": {
        "path": "M107.6 177.6C67.6 181.4 38.2 216.9 42 256.9L84 701.2C87.8 741.2 123.3 770.6 163.3 766.8L218 761.7V806C218 846.2 250.6 878.8 290.7 878.8H885.6C925.8 878.8 958.3 846.2 958.3 806V359.7C958.3 319.5 925.8 286.9 885.6 286.9H788.5L779 187.1C775.3 147.1 739.8 117.8 699.8 121.6L107.6 177.6ZM725.9 286.9H290.7C250.6 286.9 218 319.5 218 359.7V699L157.5 704.7C151.7 705.3 146.7 701.1 146.1 695.4L104.1 251C103.5 245.3 107.7 240.2 113.4 239.7L705.6 183.6C711.4 183.1 716.4 187.3 717 193L725.9 286.9ZM280.3 359.7C280.3 353.9 285 349.3 290.7 349.3H885.6C891.3 349.3 896 353.9 896 359.7V664.3L794.6 562.9C766.2 534.5 720.1 534.5 691.7 562.9L635.8 618.8 468.5 451.6C440.1 423.1 394.1 423.1 365.7 451.6L280.3 536.9V359.7ZM679.9 662.9L735.8 607C739.8 602.9 746.4 602.9 750.5 607L896 752.5V806C896 811.7 891.3 816.4 885.6 816.4H290.7C285 816.4 280.3 811.7 280.3 806V624.9L280.4 625 409.7 495.6C413.8 491.6 420.4 491.6 424.4 495.6L666 737.3C678.2 749.4 698 749.4 710.1 737.3 722.3 725.1 722.3 705.3 710.1 693.2L679.9 662.9Z",
        "width": 1000
      },
      "search": [
        "img"
      ]
    },
    {
      "uid": "8dd93e022a2c29769beaf1ee42c946bc",
      "css": "info",
      "code": 59409,
      "src": "custom_icons",
      "selected": true,
      "svg": {
        "path": "M349.1 728.7C349.1 711.4 363.1 697.4 380.4 697.4H468.7V454.2H433.2C415.9 454.2 401.9 440.2 401.9 422.9 401.9 405.6 415.9 391.6 433.2 391.6H566.8C584.1 391.6 598.1 405.6 598.1 422.9 598.1 440.2 584.1 454.2 566.8 454.2H531.3V697.4H619.6C636.9 697.4 650.9 711.4 650.9 728.7 650.9 746 636.9 760 619.6 760H380.4C363.1 760 349.1 746 349.1 728.7ZM500 341.5C533 341.5 559.7 314.8 559.7 281.8 559.7 248.8 533 222.1 500 222.1 467 222.1 440.3 248.8 440.3 281.8 440.3 314.8 467 341.5 500 341.5ZM41.7 500C41.7 246.9 246.9 41.7 500 41.7 753.1 41.7 958.3 246.9 958.3 500 958.3 753.1 753.1 958.3 500 958.3 246.9 958.3 41.7 753.1 41.7 500ZM500 104.3C281.4 104.3 104.3 281.4 104.3 500 104.3 718.6 281.4 895.7 500 895.7 718.6 895.7 895.7 718.6 895.7 500 895.7 281.4 718.6 104.3 500 104.3Z",
        "width": 1000
      },
      "search": [
        "info"
      ]
    },
    {
      "uid": "906a1cd7e90352d7eb5e63b7673453c7",
      "css": "check-1",
      "code": 59410,
      "src": "custom_icons",
      "selected": true,
      "svg": {
        "path": "M939.9 272.6L396.8 815.7 60.1 479 148.5 390.6 396.8 639 851.6 184.2 939.9 272.6Z",
        "width": 1000
      },
      "search": [
        "check"
      ]
    },
    {
      "uid": "62b5ee591d596797d32b3a2d53005fcf",
      "css": "share",
      "code": 59404,
      "src": "custom_icons",
      "selected": true,
      "svg": {
        "path": "M664.5 190.4C664.5 109.4 730.1 43.7 811.2 43.7 892.2 43.7 957.9 109.4 957.9 190.4 957.9 271.5 892.2 337.1 811.2 337.1 762 337.1 718.5 313 691.9 275.9L331.7 460.9C335.2 473.3 337 486.4 337 500 337 519.4 333.2 538 326.4 554.9L690.2 729.3C716.6 690.8 760.9 665.6 811.2 665.6 892.2 665.6 957.9 731.2 957.9 812.3 957.9 893.3 892.2 959 811.2 959 730.1 959 664.5 893.3 664.5 812.3 664.5 803.7 665.2 795.4 666.6 787.3L290.6 607.1C264.3 631.7 229.1 646.7 190.3 646.7 109.3 646.7 43.6 581 43.6 500 43.6 419 109.3 353.3 190.3 353.3 235.3 353.3 275.6 373.6 302.6 405.6L667.1 218.3C665.4 209.3 664.5 200 664.5 190.4ZM811.2 106.2C764.7 106.2 727 143.9 727 190.4 727 236.9 764.7 274.6 811.2 274.6 857.7 274.6 895.4 236.9 895.4 190.4 895.4 143.9 857.7 106.2 811.2 106.2ZM190.3 415.8C143.8 415.8 106.1 453.5 106.1 500 106.1 546.5 143.8 584.2 190.3 584.2 236.8 584.2 274.5 546.5 274.5 500 274.5 453.5 236.8 415.8 190.3 415.8ZM727 812.3C727 858.8 764.7 896.5 811.2 896.5 857.7 896.5 895.4 858.8 895.4 812.3 895.4 765.8 857.7 728.1 811.2 728.1 764.7 728.1 727 765.8 727 812.3Z",
        "width": 1000
      },
      "search": [
        "share"
      ]
    }
  ]
}